<?xml version="1.0" encoding="UTF-8"?>
<svg width="80px" height="80px" viewBox="0 0 80 80" version="1.1" xmlns="http://www.w3.org/2000/svg" xmlns:xlink="http://www.w3.org/1999/xlink">
    <!-- Generator: Sketch 40.2 (33826) - http://www.bohemiancoding.com/sketch -->
    <title>Page 1</title>
    <desc>Created with Sketch.</desc>
    <defs>
        <polygon id="path-1" points="73.9729 0.499 0 0.499 0 80 79.5 80 79.5 0.499 73.9729 0.499 73.9729 61.0028 -0.0001 61.0028 -0.0001 0.4988 73.9729 0.4988"></polygon>
        <polygon id="path-3" points="0 80 79.5 80 79.5 0.499 0 0.499"></polygon>
    </defs>
    <g id="loga" stroke="none" stroke-width="1" fill="none" fill-rule="evenodd">
        <g id="logo_opera" transform="translate(-80.000000, 70.000000)">
            <g id="Page-1" transform="translate(80.000000, -71.000000)">
                <g id="Group-16" transform="translate(0.000000, 0.331660)">
                    <g id="Group-2" transform="translate(0.000000, 1.000000)">
                        <polygon id="Fill-8" fill="#02428E" points="0.207628452 79.4989175 79.4171202 79.4989175 79.4171202 0.289425746 0.207628452 0.289425746"></polygon>
                        <path d="M5.97322533,69.8805422 C5.97322533,72.784737 6.59927931,74.1095119 7.97125672,74.1095119 C9.34261304,74.1095119 9.96804593,72.784737 9.96804593,69.8805422 C9.96804593,66.9993275 9.34261304,65.6751737 7.97125672,65.6751737 C6.59927931,65.6751737 5.97322533,66.9993275 5.97322533,69.8805422 M12.4790938,69.8805422 C12.4790938,73.8070434 10.9214119,75.8976165 7.99423687,75.8976165 C5.01985941,75.8976165 3.46341966,73.8530037 3.46341966,69.8805422 C3.46341966,65.954041 5.01985941,63.8870691 7.99423687,63.8870691 C10.9214119,63.8870691 12.4790938,65.9782633 12.4790938,69.8805422" id="Fill-10" fill="#FEFEFE"></path>
                        <path d="M15.8044465,70.8327901 C15.8044465,72.2507279 15.8976093,72.645117 16.3379588,73.2736553 C16.7342112,73.7841875 17.1994041,74.0400746 17.7801189,74.0400746 C19.1961933,74.0400746 19.8241106,72.7382798 19.8241106,69.7868825 C19.8241106,67.0224319 19.1738342,65.6976569 17.8478171,65.6976569 C17.0832612,65.6976569 16.5472645,66.1175106 16.1311374,67.045412 C15.8510279,67.6267479 15.8044465,67.904373 15.8044465,68.9285426 L15.8044465,70.8327901 Z M15.64048,64.1648184 L15.64048,66.0448436 C16.3379588,64.5356064 17.1286004,63.9548916 18.5223158,63.9548916 C20.868776,63.9548916 22.3339162,66.2088101 22.3339162,69.7868825 C22.3339162,73.5053202 20.8221946,75.8294213 18.4297741,75.8294213 C17.1994041,75.8294213 16.594467,75.5033515 15.8044465,74.4344638 L15.8044465,79.4987932 L13.4579863,79.4987932 L13.4579863,64.1648184 L15.64048,64.1648184 Z" id="Fill-11" fill="#FEFEFE"></path>
                        <path d="M29.3082072,68.6493027 C29.3082072,66.6742515 28.6119706,65.6289649 27.3089336,65.6289649 C26.124524,65.6289649 25.4270452,66.6972316 25.2885432,68.6493027 L29.3082072,68.6493027 Z M25.2425829,70.2529449 C25.2425829,72.9484551 25.9152182,74.1092635 27.4020964,74.1092635 C28.5635259,74.1092635 29.1218816,73.5279277 29.4703104,71.9708668 L31.6316873,72.2739565 C31.0515936,74.6905993 29.6572571,75.8973681 27.4492989,75.8973681 C24.4749214,75.8973681 22.8253189,73.8303962 22.8253189,70.0659982 C22.8253189,66.25564 24.5693264,63.8868207 27.3567572,63.8868207 C28.9361771,63.8868207 30.2137495,64.6060374 30.8876271,65.8836099 C31.5155443,67.0916208 31.6770265,68.0207644 31.724229,70.2529449 L25.2425829,70.2529449 Z" id="Fill-12" fill="#FEFEFE"></path>
                        <path d="M34.6450068,64.1646321 L34.6450068,66.7203981 C35.2940409,64.8161506 36.2244267,63.9099872 37.5019991,63.9099872 C37.6417433,63.9099872 37.7349061,63.9099872 37.9193684,63.9547053 L37.9193684,66.4185506 C37.6883247,66.3955705 37.595783,66.3713482 37.4566599,66.3713482 C35.8064363,66.3713482 34.923253,67.5576211 34.923253,69.7873173 L34.923253,75.6193082 L32.5538126,75.6193082 L32.5538126,64.1646321 L34.6450068,64.1646321 Z" id="Fill-13" fill="#FEFEFE"></path>
                        <path d="M43.7950837,70.0443224 C43.4919941,70.0188579 43.2373492,69.9958777 43.097605,69.9958777 C41.0523711,69.9958777 40.0070845,70.8094995 40.0070845,72.4125206 C40.0070845,73.5279898 40.5648191,74.1552859 41.539923,74.1552859 C42.8659401,74.1552859 43.7950837,72.6926301 43.7950837,70.6008148 L43.7950837,70.0443224 Z M37.9624718,67.1159052 C38.3345019,65.0476912 39.8915627,63.8868828 42.2839832,63.8868828 C43.7249011,63.8868828 44.9322909,64.3731926 45.5602081,65.2321535 C46.0247799,65.883672 46.1639031,66.6271111 46.1639031,68.556202 L46.1639031,72.4597231 C46.1639031,74.5037148 46.1875043,74.9223263 46.3496076,75.619805 L44.1186692,75.619805 C44.0025262,75.0384692 43.9801672,74.7366218 43.9801672,73.7136943 C43.097605,75.3173365 42.2591398,75.8974302 40.7505236,75.8974302 C38.7996947,75.8974302 37.5444814,74.5981197 37.5444814,72.6000883 C37.5444814,71.1349481 38.1935155,69.903336 39.3325859,69.2766609 C40.1232275,68.8120891 41.6796672,68.5338429 43.3050474,68.5338429 C43.3752301,68.5338429 43.5851569,68.5338429 43.7950837,68.556202 L43.7950837,68.0922513 C43.7950837,66.3265058 43.3050474,65.629027 42.0746775,65.629027 C41.0753512,65.629027 40.4716563,66.2084996 40.2393704,67.3935303 L37.9624718,67.1159052 Z" id="Fill-14" fill="#FEFEFE"></path>
                        <path d="M73.9092737,8.57265397 C73.9092737,5.78149666 73.7409596,3.01518277 73.4242061,0.289239421 L55.9332021,0.289239421 C56.1965422,2.93816819 56.3449816,5.6914393 56.3449816,8.57265397 C56.3449816,37.1512726 43.240703,54.7161858 22.0511361,54.7161858 C13.2553262,54.7161858 5.85820034,51.680942 0.207566343,46.096143 L0.207566343,57.0607828 C6.38674392,59.3134591 13.6304617,60.5717779 22.0511361,60.5717779 C59.6907681,60.5717779 73.9092737,35.4780688 73.9092737,8.57265397" id="Fill-15" fill="#5367A6"></path>
                    </g>
                    <g id="Group-40" transform="translate(0.000000, 0.169440)">
                        <path d="M5.7863,70.3462 C5.7863,73.2612 6.4153,74.5912 7.7923,74.5912 C9.1683,74.5912 9.7963,73.2612 9.7963,70.3462 C9.7963,67.4542 9.1683,66.1252 7.7923,66.1252 C6.4153,66.1252 5.7863,67.4542 5.7863,70.3462 L5.7863,70.3462 Z M12.3163,70.3462 C12.3163,74.2872 10.7533,76.3852 7.8143,76.3852 C4.8293,76.3852 3.2673,74.3332 3.2673,70.3462 C3.2673,66.4052 4.8293,64.3302 7.8143,64.3302 C10.7533,64.3302 12.3163,66.4292 12.3163,70.3462 L12.3163,70.3462 Z" id="Fill-2" fill="#FEFEFE"></path>
                        <path d="M15.6537,71.302 C15.6537,72.725 15.7467,73.121 16.1887,73.752 C16.5877,74.264 17.0537,74.521 17.6377,74.521 C19.0577,74.521 19.6887,73.215 19.6887,70.252 C19.6887,67.478 19.0357,66.148 17.7047,66.148 C16.9367,66.148 16.3997,66.569 15.9827,67.501 C15.7007,68.084 15.6537,68.363 15.6537,69.391 L15.6537,71.302 Z M15.4887,64.61 L15.4887,66.496 C16.1887,64.982 16.9837,64.399 18.3817,64.399 C20.7367,64.399 22.2077,66.661 22.2077,70.252 C22.2077,73.984 20.6907,76.317 18.2887,76.317 C17.0537,76.317 16.4477,75.99 15.6537,74.917 L15.6537,80 L13.2997,80 L13.2997,64.61 L15.4887,64.61 Z" id="Fill-4" fill="#FEFEFE"></path>
                        <path d="M29.2071,69.1105 C29.2071,67.1285 28.5081,66.0795 27.2001,66.0795 C26.0121,66.0795 25.3121,67.1515 25.1731,69.1105 L29.2071,69.1105 Z M25.1271,70.7205 C25.1271,73.4255 25.8021,74.5905 27.2941,74.5905 C28.4601,74.5905 29.0211,74.0075 29.3701,72.4445 L31.5401,72.7485 C30.9571,75.1745 29.5581,76.3855 27.3421,76.3855 C24.3571,76.3855 22.7001,74.3105 22.7001,70.5325 C22.7001,66.7085 24.4511,64.3305 27.2491,64.3305 C28.8341,64.3305 30.1161,65.0525 30.7921,66.3345 C31.4231,67.5475 31.5851,68.4795 31.6331,70.7205 L25.1271,70.7205 Z" id="Fill-6" fill="#FEFEFE"></path>
                        <path d="M34.5642,64.6093 L34.5642,67.1743 C35.2152,65.2633 36.1492,64.3533 37.4312,64.3533 C37.5712,64.3533 37.6652,64.3533 37.8502,64.3983 L37.8502,66.8713 C37.6182,66.8483 37.5252,66.8243 37.3862,66.8243 C35.7292,66.8243 34.8432,68.0143 34.8432,70.2523 L34.8432,76.1063 L32.4652,76.1063 L32.4652,64.6093 L34.5642,64.6093 Z" id="Fill-8" fill="#FEFEFE"></path>
                        <path d="M43.748,70.5106 C43.444,70.4846 43.188,70.4616 43.048,70.4616 C40.995,70.4616 39.945,71.2786 39.945,72.8876 C39.945,74.0066 40.506,74.6366 41.485,74.6366 C42.815,74.6366 43.748,73.1686 43.748,71.0696 L43.748,70.5106 Z M37.894,67.5716 C38.267,65.4956 39.83,64.3306 42.231,64.3306 C43.678,64.3306 44.889,64.8186 45.52,65.6806 C45.986,66.3346 46.126,67.0806 46.126,69.0166 L46.126,72.9346 C46.126,74.9866 46.149,75.4066 46.312,76.1066 L44.073,76.1066 C43.956,75.5236 43.933,75.2206 43.933,74.1936 C43.048,75.8026 42.206,76.3856 40.692,76.3856 C38.734,76.3856 37.474,75.0816 37.474,73.0756 C37.474,71.6056 38.125,70.3696 39.268,69.7406 C40.063,69.2736 41.625,68.9946 43.256,68.9946 C43.327,68.9946 43.537,68.9946 43.748,69.0166 L43.748,68.5516 C43.748,66.7796 43.256,66.0786 42.021,66.0786 C41.018,66.0786 40.412,66.6606 40.179,67.8496 L37.894,67.5716 Z" id="Fill-10" fill="#FEFEFE"></path>
                        <g id="Group-14">
                            <mask id="mask-2" fill="white">
                                <use xlink:href="#path-1"></use>
                            </mask>
                            <g id="Clip-13"></g>
                            <path d="M73.9729,8.8128 C73.9729,6.0118 73.8039,3.2348 73.4859,0.4988 L55.9309,0.4988 C56.1939,3.1578 56.3429,5.9208 56.3429,8.8128 C56.3429,37.4968 43.1919,55.1258 21.9239,55.1258 C13.0959,55.1258 5.6719,52.0798 -0.0001,46.4748 L-0.0001,57.4798 C6.2019,59.7408 13.4719,61.0028 21.9239,61.0028 C59.7019,61.0028 73.9729,35.8168 73.9729,8.8128" id="Fill-12" fill="#5367A6" mask="url(#mask-2)"></path>
                        </g>
                        <path d="M6.8212,6.5122 C6.5872,5.8112 6.2892,5.5502 5.7282,5.5502 C5.2312,5.5502 4.8762,5.8772 4.8762,6.3242 C4.8762,6.7922 5.1002,6.9802 6.1202,7.3722 C6.7362,7.6062 7.0262,7.7562 7.3072,7.9982 C7.6432,8.2892 7.8582,8.7652 7.8582,9.2422 C7.8582,10.4012 7.0262,11.1602 5.7552,11.1602 C4.6052,11.1602 3.8862,10.5792 3.6132,9.4202 L4.5302,9.1582 C4.6982,9.9262 5.1102,10.3092 5.7732,10.3092 C6.4092,10.3092 6.8022,9.9622 6.8022,9.4102 C6.8022,8.9442 6.5402,8.6912 5.7452,8.3912 C4.8862,8.0652 4.7262,7.9892 4.4272,7.7282 C4.0712,7.4202 3.8662,6.9612 3.8662,6.4572 C3.8662,5.4282 4.6532,4.6992 5.7652,4.6992 C6.7922,4.6992 7.3812,5.1562 7.6992,6.2032 L6.8212,6.5122 Z" id="Fill-15" fill="#FEFEFE"></path>
                        <mask id="mask-4" fill="white">
                            <use xlink:href="#path-3"></use>
                        </mask>
                        <g id="Clip-18"></g>
                        <polygon id="Fill-17" fill="#FEFEFE" mask="url(#mask-4)" points="8.61 11.047 9.564 11.047 9.564 4.811 8.61 4.811"></polygon>
                        <path d="M11.3436,8.7385 C11.3436,9.9075 11.5976,10.4385 12.1486,10.4385 C12.6996,10.4385 12.9516,9.9075 12.9516,8.7385 C12.9516,7.5785 12.6996,7.0465 12.1486,7.0465 C11.5976,7.0465 11.3436,7.5785 11.3436,8.7385 M13.9626,8.7385 C13.9626,10.3175 13.3356,11.1605 12.1586,11.1605 C10.9606,11.1605 10.3346,10.3365 10.3346,8.7385 C10.3346,7.1575 10.9606,6.3245 12.1586,6.3245 C13.3356,6.3245 13.9626,7.1665 13.9626,8.7385" id="Fill-19" fill="#FEFEFE" mask="url(#mask-4)"></path>
                        <polygon id="Fill-20" fill="#FEFEFE" mask="url(#mask-4)" points="15.0668 6.4373 15.9268 9.7483 16.7748 6.4373 17.5998 6.4373 16.2988 11.0473 15.4498 11.0473 14.1328 6.4373"></polygon>
                        <path d="M20.3582,8.2417 C20.3582,7.4477 20.0782,7.0267 19.5542,7.0267 C19.0772,7.0267 18.7972,7.4567 18.7412,8.2417 L20.3582,8.2417 Z M18.7232,8.8857 C18.7232,9.9707 18.9932,10.4377 19.5922,10.4377 C20.0592,10.4377 20.2832,10.2057 20.4232,9.5797 L21.2932,9.7007 C21.0592,10.6727 20.5012,11.1607 19.6112,11.1607 C18.4122,11.1607 17.7502,10.3267 17.7502,8.8127 C17.7502,7.2797 18.4512,6.3247 19.5712,6.3247 C20.2072,6.3247 20.7252,6.6157 20.9942,7.1307 C21.2462,7.6147 21.3112,7.9897 21.3312,8.8857 L18.7232,8.8857 Z" id="Fill-21" fill="#FEFEFE" mask="url(#mask-4)"></path>
                        <path d="M22.9199,6.4373 L22.9199,7.1483 C23.1729,6.5593 23.4999,6.3243 24.0789,6.3243 C24.5759,6.3243 24.9579,6.5593 25.1269,6.9693 C25.2199,7.1863 25.2479,7.4273 25.2479,8.0733 L25.2479,11.0473 L24.2959,11.0473 L24.2959,8.1293 C24.2959,7.2983 24.1809,7.0913 23.7429,7.0913 C23.2109,7.0913 22.9939,7.4743 22.9939,8.4673 L22.9939,11.0473 L22.0419,11.0473 L22.0419,6.4373 L22.9199,6.4373 Z" id="Fill-22" fill="#FEFEFE" mask="url(#mask-4)"></path>
                        <path d="M28.2867,7.7182 C28.1287,7.2412 27.8947,7.0272 27.5197,7.0272 C27.1557,7.0272 26.9107,7.2502 26.9107,7.5982 C26.9107,7.7832 26.9947,7.9432 27.1357,8.0372 C27.2667,8.1292 27.3327,8.1492 27.8377,8.3172 C28.8477,8.6532 29.2027,9.0072 29.2027,9.7082 C29.2027,10.5602 28.5007,11.1602 27.5117,11.1602 C26.5477,11.1602 26.0047,10.7282 25.8467,9.8222 L26.6507,9.6642 C26.7627,10.2052 27.0427,10.4582 27.5397,10.4582 C27.9877,10.4582 28.2687,10.2142 28.2687,9.8402 C28.2687,9.5042 28.0807,9.3462 27.4527,9.1492 C26.8547,8.9522 26.6227,8.8492 26.3977,8.6532 C26.1447,8.4182 26.0047,8.1002 26.0047,7.7282 C26.0047,6.9322 26.6687,6.3252 27.5397,6.3252 C28.3147,6.3252 28.8007,6.7082 29.0357,7.5142 L28.2867,7.7182 Z" id="Fill-23" fill="#FEFEFE" mask="url(#mask-4)"></path>
                        <polygon id="Fill-24" fill="#FEFEFE" mask="url(#mask-4)" points="30.8045 4.8114 30.8045 8.4954 32.2925 6.4374 33.2355 6.4374 32.0385 8.0274 33.3655 11.0474 32.3385 11.0474 31.4215 8.7384 30.8045 9.5794 30.8045 11.0474 29.8515 11.0474 29.8515 4.8114"></polygon>
                        <path d="M36.2469,4.2495 L36.7309,4.8755 L35.1229,5.8855 L34.7779,5.5305 L36.2469,4.2495 Z M36.0579,8.2415 C36.0579,7.4485 35.7779,7.0265 35.2529,7.0265 C34.7779,7.0265 34.4979,7.4565 34.4419,8.2415 L36.0579,8.2415 Z M34.4229,8.8865 C34.4229,9.9705 34.6939,10.4385 35.2909,10.4385 C35.7599,10.4385 35.9849,10.2055 36.1239,9.5795 L36.9919,9.7005 C36.7589,10.6735 36.1999,11.1605 35.3109,11.1605 C34.1139,11.1605 33.4489,10.3265 33.4489,8.8125 C33.4489,7.2795 34.1509,6.3245 35.2739,6.3245 C35.9099,6.3245 36.4229,6.6155 36.6939,7.1305 C36.9469,7.6145 37.0109,7.9895 37.0299,8.8865 L34.4229,8.8865 Z" id="Fill-25" fill="#FEFEFE" mask="url(#mask-4)"></path>
                        <path d="M4.8385,15.7867 L4.8385,16.4977 C5.0925,15.9067 5.4185,15.6737 5.9995,15.6737 C6.4945,15.6737 6.8765,15.9067 7.0455,16.3187 C7.1385,16.5337 7.1655,16.7777 7.1655,17.4227 L7.1655,20.3957 L6.2125,20.3957 L6.2125,17.4777 C6.2125,16.6467 6.1005,16.4407 5.6615,16.4407 C5.1295,16.4407 4.9155,16.8237 4.9155,17.8147 L4.9155,20.3957 L3.9605,20.3957 L3.9605,15.7867 L4.8385,15.7867 Z" id="Fill-26" fill="#FEFEFE" mask="url(#mask-4)"></path>
                        <path d="M10.7203,13.5988 L11.2063,14.2248 L9.5993,15.2338 L9.2533,14.8798 L10.7203,13.5988 Z M10.3833,18.1518 C10.2623,18.1428 10.1593,18.1328 10.1033,18.1328 C9.2813,18.1328 8.8593,18.4608 8.8593,19.1058 C8.8593,19.5538 9.0823,19.8058 9.4773,19.8058 C10.0103,19.8058 10.3833,19.2178 10.3833,18.3768 L10.3833,18.1518 Z M8.0353,16.9728 C8.1873,16.1408 8.8133,15.6738 9.7753,15.6738 C10.3563,15.6738 10.8423,15.8718 11.0943,16.2148 C11.2813,16.4798 11.3373,16.7778 11.3373,17.5538 L11.3373,19.1238 C11.3373,19.9458 11.3463,20.1138 11.4133,20.3948 L10.5143,20.3948 C10.4673,20.1628 10.4573,20.0408 10.4573,19.6298 C10.1033,20.2748 9.7673,20.5078 9.1593,20.5078 C8.3723,20.5078 7.8693,19.9848 7.8693,19.1788 C7.8693,18.5908 8.1293,18.0948 8.5883,17.8438 C8.9063,17.6558 9.5323,17.5438 10.1883,17.5438 C10.2163,17.5438 10.2993,17.5438 10.3833,17.5538 L10.3833,17.3658 C10.3833,16.6558 10.1883,16.3758 9.6933,16.3758 C9.2883,16.3758 9.0473,16.6088 8.9533,17.0858 L8.0353,16.9728 Z" id="Fill-27" fill="#FEFEFE" mask="url(#mask-4)"></path>
                        <path d="M13.1103,15.7867 L13.1103,16.8137 C13.3693,16.0477 13.7463,15.6837 14.2613,15.6837 C14.3173,15.6837 14.3523,15.6837 14.4263,15.7017 L14.4263,16.6927 C14.3353,16.6827 14.2973,16.6747 14.2423,16.6747 C13.5763,16.6747 13.2233,17.1507 13.2233,18.0487 L13.2233,20.3957 L12.2673,20.3957 L12.2673,15.7867 L13.1103,15.7867 Z" id="Fill-28" fill="#FEFEFE" mask="url(#mask-4)"></path>
                        <path d="M15.6744,18.0854 C15.6744,19.2544 15.9264,19.7874 16.4774,19.7874 C17.0294,19.7874 17.2814,19.2544 17.2814,18.0854 C17.2814,16.9264 17.0294,16.3954 16.4774,16.3954 C15.9264,16.3954 15.6744,16.9264 15.6744,18.0854 M18.2904,18.0854 C18.2904,19.6654 17.6664,20.5084 16.4884,20.5084 C15.2914,20.5084 14.6654,19.6834 14.6654,18.0854 C14.6654,16.5064 15.2914,15.6734 16.4884,15.6734 C17.6664,15.6734 18.2904,16.5154 18.2904,18.0854" id="Fill-29" fill="#FEFEFE" mask="url(#mask-4)"></path>
                        <path d="M21.5002,17.6836 C21.5002,17.1696 21.4532,16.9906 21.2562,16.7306 C21.0972,16.5156 20.9012,16.4016 20.6672,16.4016 C20.1242,16.4016 19.8722,16.9166 19.8722,18.0206 C19.8722,19.2176 20.1152,19.7596 20.6672,19.7596 C21.2102,19.7596 21.5002,19.3116 21.5002,18.4786 L21.5002,17.6836 Z M22.4432,14.1606 L22.4432,20.3956 L21.5742,20.3956 L21.5742,19.6956 C21.2942,20.2646 20.9752,20.4796 20.4232,20.4796 C19.4322,20.4796 18.8632,19.6106 18.8632,18.1036 C18.8632,16.6466 19.4702,15.7016 20.4232,15.7016 C20.9482,15.7016 21.2562,15.8786 21.5002,16.3186 L21.5002,14.1606 L22.4432,14.1606 Z" id="Fill-30" fill="#FEFEFE" mask="url(#mask-4)"></path>
                        <path d="M24.2871,15.7867 L24.2871,16.4977 C24.5381,15.9067 24.8651,15.6737 25.4451,15.6737 C25.9401,15.6737 26.3241,15.9067 26.4921,16.3187 C26.5871,16.5337 26.6131,16.7777 26.6131,17.4227 L26.6131,20.3957 L25.6601,20.3957 L25.6601,17.4777 C25.6601,16.6467 25.5481,16.4407 25.1091,16.4407 C24.5761,16.4407 24.3611,16.8237 24.3611,17.8147 L24.3611,20.3957 L23.4071,20.3957 L23.4071,15.7867 L24.2871,15.7867 Z" id="Fill-31" fill="#FEFEFE" mask="url(#mask-4)"></path>
                        <path d="M30.1471,13.5988 L30.6311,14.2248 L29.0241,15.2338 L28.6781,14.8798 L30.1471,13.5988 Z M29.9581,17.5908 C29.9581,16.7978 29.6791,16.3758 29.1551,16.3758 C28.6781,16.3758 28.3981,16.8058 28.3421,17.5908 L29.9581,17.5908 Z M28.3231,18.2358 C28.3231,19.3198 28.5951,19.7878 29.1931,19.7878 C29.6591,19.7878 29.8851,19.5538 30.0251,18.9278 L30.8931,19.0488 C30.6611,20.0218 30.1001,20.5078 29.2121,20.5078 C28.0141,20.5078 27.3511,19.6758 27.3511,18.1598 C27.3511,16.6278 28.0531,15.6738 29.1731,15.6738 C29.8071,15.6738 30.3231,15.9628 30.5941,16.4798 C30.8471,16.9638 30.9121,17.3378 30.9311,18.2358 L28.3231,18.2358 Z" id="Fill-32" fill="#FEFEFE" mask="url(#mask-4)"></path>
                        <path d="M6.3622,27.033 C6.3622,26.519 6.3182,26.342 6.1192,26.08 C5.9612,25.864 5.7652,25.752 5.5302,25.752 C4.9872,25.752 4.7362,26.266 4.7362,27.37 C4.7362,28.567 4.9782,29.109 5.5302,29.109 C6.0722,29.109 6.3622,28.659 6.3622,27.828 L6.3622,27.033 Z M7.3082,23.51 L7.3082,29.745 L6.4372,29.745 L6.4372,29.043 C6.1572,29.614 5.8392,29.828 5.2872,29.828 C4.2972,29.828 3.7262,28.959 3.7262,27.454 C3.7262,25.996 4.3332,25.051 5.2872,25.051 C5.8102,25.051 6.1192,25.228 6.3622,25.668 L6.3622,23.51 L7.3082,23.51 Z" id="Fill-33" fill="#FEFEFE" mask="url(#mask-4)"></path>
                        <path d="M8.268,29.744 L9.221,29.744 L9.221,25.134 L8.268,25.134 L8.268,29.744 Z M8.25,24.52 L9.25,24.52 L9.25,23.51 L8.25,23.51 L8.25,24.52 Z" id="Fill-34" fill="#FEFEFE" mask="url(#mask-4)"></path>
                        <polygon id="Fill-35" fill="#FEFEFE" mask="url(#mask-4)" points="10.6485 25.1349 11.5095 28.4459 12.3605 25.1349 13.1815 25.1349 11.8845 29.7449 11.0315 29.7449 9.7145 25.1349"></polygon>
                        <path d="M15.8473,27.4992 C15.7273,27.4922 15.6243,27.4812 15.5673,27.4812 C14.7443,27.4812 14.3243,27.8082 14.3243,28.4532 C14.3243,28.9022 14.5473,29.1552 14.9403,29.1552 C15.4733,29.1552 15.8473,28.5672 15.8473,27.7242 L15.8473,27.4992 Z M13.5013,26.3232 C13.6513,25.4902 14.2793,25.0222 15.2423,25.0222 C15.8203,25.0222 16.3053,25.2192 16.5593,25.5642 C16.7443,25.8272 16.8003,26.1262 16.8003,26.9022 L16.8003,28.4722 C16.8003,29.2952 16.8103,29.4632 16.8763,29.7442 L15.9773,29.7442 C15.9323,29.5122 15.9213,29.3882 15.9213,28.9772 C15.5673,29.6222 15.2313,29.8572 14.6223,29.8572 C13.8383,29.8572 13.3333,29.3342 13.3333,28.5292 C13.3333,27.9402 13.5953,27.4442 14.0543,27.1922 C14.3703,27.0062 14.9963,26.8922 15.6523,26.8922 C15.6793,26.8922 15.7633,26.8922 15.8473,26.9022 L15.8473,26.7152 C15.8473,26.0052 15.6523,25.7242 15.1563,25.7242 C14.7523,25.7242 14.5103,25.9572 14.4163,26.4342 L13.5013,26.3232 Z" id="Fill-36" fill="#FEFEFE" mask="url(#mask-4)"></path>
                        <path d="M20.1463,27.033 C20.1463,26.519 20.1003,26.342 19.9053,26.08 C19.7453,25.864 19.5473,25.752 19.3143,25.752 C18.7743,25.752 18.5183,26.266 18.5183,27.37 C18.5183,28.567 18.7643,29.109 19.3143,29.109 C19.8573,29.109 20.1463,28.659 20.1463,27.828 L20.1463,27.033 Z M21.0913,23.51 L21.0913,29.745 L20.2213,29.745 L20.2213,29.043 C19.9423,29.614 19.6243,29.828 19.0713,29.828 C18.0813,29.828 17.5103,28.959 17.5103,27.454 C17.5103,25.996 18.1183,25.051 19.0713,25.051 C19.5963,25.051 19.9053,25.228 20.1463,25.668 L20.1463,23.51 L21.0913,23.51 Z" id="Fill-37" fill="#FEFEFE" mask="url(#mask-4)"></path>
                        <polygon id="Fill-38" fill="#FEFEFE" mask="url(#mask-4)" points="22.053 29.744 23.006 29.744 23.006 23.509 22.053 23.509"></polygon>
                        <path d="M24.7876,27.4347 C24.7876,28.6037 25.0396,29.1357 25.5926,29.1357 C26.1436,29.1357 26.3956,28.6037 26.3956,27.4347 C26.3956,26.2757 26.1436,25.7437 25.5926,25.7437 C25.0396,25.7437 24.7876,26.2757 24.7876,27.4347 M27.4066,27.4347 C27.4066,29.0147 26.7796,29.8577 25.6006,29.8577 C24.4056,29.8577 23.7796,29.0327 23.7796,27.4347 C23.7796,25.8557 24.4056,25.0227 25.6006,25.0227 C26.7796,25.0227 27.4066,25.8637 27.4066,27.4347" id="Fill-39" fill="#FEFEFE" mask="url(#mask-4)"></path>
                    </g>
                </g>
            </g>
        </g>
    </g>
</svg>