<?xml version="1.0" encoding="UTF-8"?>
<svg width="149px" height="146px" viewBox="0 0 149 146" version="1.1" xmlns="http://www.w3.org/2000/svg" xmlns:xlink="http://www.w3.org/1999/xlink">
    <!-- Generator: Sketch 40.2 (33826) - http://www.bohemiancoding.com/sketch -->
    <title>24 hod</title>
    <desc>Created with Sketch.</desc>
    <defs>
        <path d="M118.86225,37.78833 C119.97141,38.89749 121.43001,39.43361 122.88445,39.41541 C124.33837,39.43569 125.79697,38.89749 126.90821,37.78833 L138.85001,25.90737 C142.94709,21.81029 142.94709,15.16833 138.85001,11.07125 C134.75501,6.97625 128.11253,6.97625 124.01753,11.07125 L122.95517,12.11749 L121.90529,11.07125 C117.81029,6.97625 111.16781,6.97625 107.07281,11.07125 C102.97573,15.16833 102.97573,21.80821 107.07281,25.90529 L118.86225,37.78833 Z" id="path-1"></path>
        <filter x="-50%" y="-50%" width="200%" height="200%" filterUnits="objectBoundingBox" id="filter-2">
            <feMorphology radius="2" operator="dilate" in="SourceAlpha" result="shadowSpreadOuter1"></feMorphology>
            <feOffset dx="-2" dy="2" in="shadowSpreadOuter1" result="shadowOffsetOuter1"></feOffset>
            <feGaussianBlur stdDeviation="3.5" in="shadowOffsetOuter1" result="shadowBlurOuter1"></feGaussianBlur>
            <feComposite in="shadowBlurOuter1" in2="SourceAlpha" operator="out" result="shadowBlurOuter1"></feComposite>
            <feColorMatrix values="0 0 0 0 0   0 0 0 0 0   0 0 0 0 0  0 0 0 0.15 0" type="matrix" in="shadowBlurOuter1"></feColorMatrix>
        </filter>
    </defs>
    <g id="Symbols" stroke="none" stroke-width="1" fill="none" fill-rule="evenodd">
        <g id="24-hod">
            <g id="Group-14" transform="translate(4.000000, 4.000000)">
                <g id="Group-Copy-2">
                    <circle id="Oval" stroke="#D5D5D5" stroke-width="5" cx="69.5" cy="69.5" r="69.5"></circle>
                    <g id="Page-1">
                        <use fill="black" fill-opacity="1" filter="url(#filter-2)" xlink:href="#path-1"></use>
                        <use stroke="#D5D5D5" stroke-width="4" fill="#FFFFFF" fill-rule="evenodd" xlink:href="#path-1"></use>
                    </g>
                </g>
                <g id="24-hod" transform="translate(39.000000, 35.000000)" fill="#4A4A4A">
                    <g id="Page-1">
                        <path d="M49.1885053,8.12730889 C48.5972435,7.702657 47.7479398,7.87333049 47.3273515,8.55196078 C46.9026996,9.14322251 47.0733731,9.99252629 47.7520034,10.4131145 C56.0499858,15.746661 60.9588804,24.8898835 60.9588804,34.7117363 C60.9548167,50.7123757 48.0019182,63.6652742 32.0012788,63.6652742 C28.3622762,63.6652742 24.71921,62.9866439 21.3341858,61.633447 L23.1953396,61.2087951 C23.9572748,61.0381216 24.3819267,60.2761864 24.2112532,59.6016198 C24.0405797,58.8396846 23.3660131,58.4150327 22.6040779,58.5857062 L16.8458795,59.9389031 C16.4212276,60.022208 16.0839443,60.2761864 15.9132708,60.7008383 L15.9132708,60.7008383 L15.9132708,60.7841432 C15.7425973,61.1214265 15.7425973,61.5460784 15.9132708,61.9707303 L18.6237283,67.2209719 C18.8777067,67.6456238 19.3023586,67.9829071 19.8103154,67.9829071 C19.9809889,67.9829071 20.2349673,67.8996022 20.4015772,67.8122336 C21.0802074,67.4749503 21.3341858,66.6256465 20.9928389,66.0343848 L20.0602302,64.173231 C23.8699062,65.6971014 27.9335607,66.5423416 31.9972151,66.5423416 C49.43842,66.5423416 63.6612106,52.319551 63.6612106,34.8783461 C63.6652742,23.9572748 58.2443592,13.9688122 49.1885053,8.12730889 L49.1885053,8.12730889 Z" id="Fill-1" stroke="#4A4A4A" stroke-width="0.5"></path>
                        <path d="M3.04774084,34.7117363 C3.04774084,18.7110969 16.0839443,5.75819835 32.0012788,5.75819835 C34.3703893,5.75819835 36.7435635,6.01217675 39.0293691,6.60343848 L37.3348252,7.28206877 C36.6561949,7.53604717 36.3189116,8.29798238 36.57289,9.05991759 C36.7435635,9.5678744 37.2515203,9.90515772 37.842782,9.90515772 C38.0134555,9.90515772 38.1800654,9.90515772 38.3507388,9.8218528 L43.8549588,7.70672066 C44.2796107,7.53604717 44.5335891,7.19876385 44.616894,6.86148053 L44.616894,6.77817562 C44.616894,6.77817562 44.616894,6.77817562 44.616894,6.6948707 C44.7001989,6.35758738 44.7001989,5.93293549 44.4462205,5.5082836 L40.9738278,0.682693947 C40.465871,0.170673487 39.7039358,-1.58206781e-15 39.0293691,0.42465189 C38.4381074,0.849303779 38.2674339,1.6945439 38.6920858,2.28580563 L39.9619778,4.06365445 C37.3388889,3.38502415 34.7117363,3.04774084 31.9179739,3.04774084 C14.5600739,3.04774084 0.337283319,17.2705314 0.337283319,34.7117363 C0.337283319,44.1089372 4.48424268,52.9981813 11.7663115,59.093663 C12.0202899,59.2643365 12.3575732,59.4309463 12.6115516,59.4309463 C13.0362035,59.4309463 13.3734868,59.2602728 13.6274652,58.9229895 C14.135422,58.3317278 14.0521171,57.482424 13.4567917,57.0618357 C6.85741688,51.4743109 3.04774084,43.347002 3.04774084,34.7117363 L3.04774084,34.7117363 Z" id="Fill-2" stroke="#4A4A4A" stroke-width="0.5"></path>
                        <path d="M20.3182722,52.9981813 C19.7270105,52.5735294 18.8777067,52.7442029 18.4571185,53.4228332 L17.016553,55.7086388 C16.5919011,56.2999005 16.7625746,57.1492043 17.4412049,57.5697926 C17.6951833,57.740466 17.9491617,57.740466 18.2031401,57.740466 C18.627792,57.740466 19.0483802,57.4864876 19.3023586,57.1492043 L20.7429241,54.8633987 C21.1635124,54.2680733 20.9969025,53.4187695 20.3182722,52.9981813 L20.3182722,52.9981813 Z" id="Fill-4"></path>
                        <path d="M9.22652742,48.1725916 C9.48050583,48.1725916 9.65117931,48.0892867 9.81778914,48.0019182 L12.2742683,46.7320261 C12.9528986,46.3947428 13.206877,45.545439 12.86553,44.8708724 C12.5282467,44.1922421 11.6789429,43.9382637 11.0043762,44.2796107 L8.54789713,45.5495027 C7.86926684,45.886786 7.61528843,46.7360898 7.95663541,47.4106564 C8.29798238,47.9186132 8.71857062,48.1725916 9.22652742,48.1725916 L9.22652742,48.1725916 Z" id="Fill-5"></path>
                        <path d="M8.97254902,35.4736715 C9.73448423,35.4736715 10.325746,34.8824098 10.325746,34.1204746 C10.325746,33.3585394 9.73448423,32.7672776 8.97254902,32.7672776 L6.2620915,32.6839727 C5.50015629,32.6839727 4.90889457,33.2752344 4.90889457,34.0371697 C4.90889457,34.7991049 5.50015629,35.3903666 6.2620915,35.3903666 L8.97254902,35.4736715 L8.97254902,35.4736715 L8.97254902,35.4736715 Z" id="Fill-6"></path>
                        <path d="M13.3775504,23.5366866 C13.8022023,22.8580563 13.5482239,22.0961211 12.9528986,21.6755328 L10.583788,20.2349673 C9.90515772,19.8103154 9.14322251,20.0642938 8.72263427,20.6596192 C8.29798238,21.3382495 8.55196078,22.1001847 9.14728616,22.5207729 L11.5163967,23.9613384 C11.7703751,24.1320119 11.9410486,24.1320119 12.195027,24.1320119 C12.6989201,24.2112532 13.123572,23.9572748 13.3775504,23.5366866 L13.3775504,23.5366866 Z" id="Fill-7"></path>
                        <path d="M21.8421427,13.9688122 L20.4889457,11.5997016 C20.1516624,10.9210713 19.3023586,10.7544615 18.627792,11.0917448 C17.9491617,11.4290281 17.7825519,12.2783319 18.1198352,12.9528986 L19.4730321,15.3220091 C19.7270105,15.746661 20.1516624,16.0006394 20.6596192,16.0006394 C20.9135976,16.0006394 21.0842711,15.9173345 21.3382495,15.8299659 C21.9254476,15.4926826 22.179426,14.6474425 21.8421427,13.9688122 L21.8421427,13.9688122 Z" id="Fill-8"></path>
                        <path d="M32.0012788,13.0362035 C32.763214,13.0362035 33.3544757,12.4449417 33.3544757,11.6830065 L33.3544757,8.97254902 C33.3544757,8.21061381 32.763214,7.61935209 32.0012788,7.61935209 C31.2393436,7.61935209 30.6480818,8.21061381 30.6480818,8.97254902 L30.6480818,11.6830065 C30.6480818,12.4449417 31.2393436,13.0362035 32.0012788,13.0362035 L32.0012788,13.0362035 Z" id="Fill-9"></path>
                        <path d="M30.6480818,57.7364024 L30.6480818,60.4468599 C30.6480818,61.2087951 31.2393436,61.8000568 32.0012788,61.8000568 C32.763214,61.8000568 33.3544757,61.2087951 33.3544757,60.4468599 L33.3544757,57.7364024 C33.3544757,56.9744672 32.763214,56.3832055 32.0012788,56.3832055 C31.2393436,56.3832055 30.6480818,56.9744672 30.6480818,57.7364024 L30.6480818,57.7364024 Z" id="Fill-10"></path>
                        <path d="M43.5136118,11.5997016 L42.1604149,13.9688122 C41.8231316,14.6474425 41.9897414,15.4093777 42.6683717,15.8299659 C42.8390452,15.9132708 43.0930236,16.0006394 43.347002,16.0006394 C43.8549588,16.0006394 44.2796107,15.746661 44.5335891,15.3220091 L45.886786,12.9528986 C46.2240693,12.2742683 46.0574595,11.512333 45.3788292,11.0917448 C44.7001989,10.7503978 43.9382637,10.9210713 43.5136118,11.5997016 L43.5136118,11.5997016 Z" id="Fill-11"></path>
                        <path d="M53.4187695,20.3182722 L51.049659,21.7588377 C50.3710287,22.1834896 50.2044189,22.9454248 50.6250071,23.6199915 C50.8789855,24.0446434 51.3036374,24.2986218 51.8115942,24.2986218 C52.0655726,24.2986218 52.319551,24.2153169 52.4902245,24.1279483 L54.859335,22.6873828 C55.5379653,22.2627309 55.7045752,21.5007957 55.2839869,20.826229 C54.859335,20.1475987 54.0140949,19.8936203 53.4187695,20.3182722 L53.4187695,20.3182722 Z" id="Fill-12"></path>
                        <path d="M59.093663,34.033106 C59.093663,33.2711708 58.4150327,32.6799091 57.740466,32.6799091 L55.0300085,32.763214 C54.2680733,32.763214 53.6768116,33.4418443 53.6768116,34.1164109 C53.6768116,34.8783461 54.2680733,35.4696078 55.0300085,35.4696078 L55.0300085,35.4696078 L57.740466,35.3863029 C58.5857062,35.3863029 59.1769679,34.7950412 59.093663,34.033106 L59.093663,34.033106 Z" id="Fill-13"></path>
                        <path d="M52.9981813,44.3629156 C52.319551,44.0256323 51.5576158,44.2796107 51.1370276,44.9541773 C50.7997442,45.6328076 51.0537226,46.3947428 51.7282893,46.8153311 L54.1847684,48.0852231 C54.3554419,48.168528 54.6094203,48.2558966 54.7760301,48.2558966 C55.2839869,48.2558966 55.7086388,48.0019182 55.9626172,47.5772663 C56.2999005,46.898636 56.0459221,46.1367008 55.3713555,45.7161125 L52.9981813,44.3629156 Z" id="Fill-14"></path>
                        <path d="M43.6842853,52.9981813 C43.0930236,53.4228332 42.8390452,54.2680733 43.2596334,54.859335 L44.7001989,57.1451407 C44.9541773,57.5697926 45.3788292,57.7364024 45.7994174,57.7364024 C46.0533959,57.7364024 46.3073743,57.6530975 46.5613527,57.5657289 C47.1526144,57.141077 47.4065928,56.2958369 46.9860045,55.7045752 L45.545439,53.4187695 C45.1248508,52.8275078 44.275547,52.6568343 43.6842853,52.9981813 L43.6842853,52.9981813 Z" id="Fill-15"></path>
                    </g>
                    <path d="M27.5936462,37.140625 L27.4364196,39 L20.4364196,39 L20.4364196,37.1884766 C20.6642854,37.0152986 21.0402582,36.7441425 21.5643493,36.375 C22.8449547,35.4635371 23.7769115,34.7127308 24.3602478,34.1225586 C24.943584,33.5323864 25.2352478,32.9912134 25.2352478,32.4990234 C25.2352478,32.1389956 25.119038,31.8416353 24.886615,31.6069336 C24.6541919,31.3722319 24.3420206,31.2548828 23.9500915,31.2548828 C23.0386286,31.2548828 22.5099881,31.8496034 22.364154,33.0390625 L20.4364196,32.6083984 C20.8693645,30.5530496 22.0701989,29.5253906 24.0389587,29.5253906 C25.1418288,29.5253906 25.9883373,29.8147758 26.5785095,30.3935547 C27.1686817,30.9723336 27.4637634,31.6627564 27.4637634,32.4648438 C27.4637634,33.294275 27.15501,34.0348275 26.5374939,34.6865234 C25.9199778,35.3382194 24.7840842,36.1562451 23.129779,37.140625 L27.5936462,37.140625 Z M34.7850525,29.5253906 L34.7850525,35.2128906 L36.0907165,35.2128906 L36.0907165,36.8466797 L34.7850525,36.8466797 L34.7850525,39 L32.6043884,39 L32.6043884,36.8466797 L28.5233337,36.8466797 L28.5233337,35.2128906 L32.2899353,29.5253906 L34.7850525,29.5253906 Z M30.1707946,35.2128906 L32.7069275,35.2128906 L32.7069275,32.0546875 C32.7069275,31.93164 32.7114847,31.7835295 32.7205993,31.6103516 L32.7342712,31.2275391 L30.1707946,35.2128906 Z M39.2284118,29.6689453 L39.2284118,33.0390625 C39.6021116,32.3144495 40.2241757,31.9521484 41.0946228,31.9521484 C41.5594688,31.9521484 41.9570886,32.0535472 42.2874939,32.2563477 C42.6178992,32.4591481 42.8503187,32.7200505 42.9847595,33.0390625 C43.1192003,33.3580745 43.1864196,33.8251922 43.1864196,34.4404297 L43.1864196,39 L41.1561462,39 L41.1561462,35.1103516 C41.1561462,34.6455055 41.1379172,34.3264983 41.1014587,34.1533203 C41.0650002,33.9801424 40.9818305,33.8354498 40.851947,33.7192383 C40.7220635,33.6030268 40.559142,33.5449219 40.3631775,33.5449219 C40.1079679,33.5449219 39.8550407,33.644042 39.6043884,33.8422852 C39.3537361,34.0405283 39.2284118,34.4632129 39.2284118,35.1103516 L39.2284118,39 L37.2528259,39 L37.2528259,29.6689453 L39.2284118,29.6689453 Z" id="24h"></path>
                </g>
            </g>
        </g>
    </g>
</svg>