<?xml version="1.0" encoding="UTF-8"?>
<svg width="13px" height="20px" viewBox="0 0 13 20" version="1.1" xmlns="http://www.w3.org/2000/svg" xmlns:xlink="http://www.w3.org/1999/xlink">
    <!-- Generator: Sketch 40.2 (33826) - http://www.bohemiancoding.com/sketch -->
    <title>icon</title>
    <desc>Created with Sketch.</desc>
    <defs></defs>
    <g id="FINAL" stroke="none" stroke-width="1" fill="none" fill-rule="evenodd">
        <g id="BLACK_Repertoar_detail" transform="translate(-153.000000, -651.000000)" fill="#FFFFFF">
            <g id="place" transform="translate(153.000000, 636.000000)">
                <g id="icon" transform="translate(0.000000, 15.000000)">
                    <path d="M6.66499996,0.0454431816 C3.16454198,0.0454431816 0.316873141,2.76367253 0.316873141,6.10501878 C0.316873141,11.2044708 5.99240625,19.3842435 6.23348882,19.7296117 C6.33022654,19.8670319 6.49247168,19.9495567 6.66499996,19.9495567 C6.83905168,19.9495567 6.99977339,19.8670319 7.0965111,19.7296117 C7.33759367,19.3842435 13.0131268,11.2044708 13.0131268,6.10501878 C13.0131268,2.76367253 10.1654579,0.0454431816 6.66499996,0.0454431816 L6.66499996,0.0454431816 Z M9.12267109,14.4225752 C8.16748138,16.2003125 7.20353196,17.7213866 6.66499996,18.5379097 C6.12646796,17.7213866 5.16251854,16.2017666 4.20732883,14.4225752 C2.90555913,11.9999083 1.35547056,8.5902155 1.35547056,6.10501878 C1.35547056,3.31008134 3.73697026,1.03537745 6.66499996,1.03537745 C9.59302966,1.03537745 11.9760528,3.30899071 11.9760528,6.10501878 C11.9745294,8.5902155 10.4244408,11.9999083 9.12267109,14.4225752 L9.12267109,14.4225752 Z" id="Fill-1"></path>
                    <path d="M6.69623025,3.32462316 C5.10729426,3.32462316 3.81466512,4.55849643 3.81466512,6.07520806 C3.81466512,7.59191968 5.10729426,8.82579295 6.69623025,8.82579295 C8.28516624,8.82579295 9.57779537,7.59191968 9.57779537,6.07520806 C9.57779537,4.55849643 8.28516624,3.32462316 6.69623025,3.32462316 L6.69623025,3.32462316 Z M6.69623025,7.83476805 C5.67857997,7.83476805 4.85135826,7.04514732 4.85135826,6.07375387 C4.85135826,5.10236043 5.67857997,4.3127397 6.69623025,4.3127397 C7.71388053,4.3127397 8.54110224,5.10236043 8.54110224,6.07375387 C8.54110224,7.04369314 7.7123571,7.83476805 6.69623025,7.83476805 L6.69623025,7.83476805 Z" id="Fill-2"></path>
                </g>
            </g>
        </g>
    </g>
</svg>