<?xml version="1.0" encoding="UTF-8"?>
<svg width="17px" height="22px" viewBox="0 0 17 22" version="1.1" xmlns="http://www.w3.org/2000/svg" xmlns:xlink="http://www.w3.org/1999/xlink">
    <!-- Generator: Sketch 40.2 (33826) - http://www.bohemiancoding.com/sketch -->
    <title>Page 1</title>
    <desc>Created with Sketch.</desc>
    <defs></defs>
    <g id="FINAL" stroke="none" stroke-width="1" fill="none" fill-rule="evenodd">
        <g id="BLACK_Repertoar_detail" transform="translate(-940.000000, -1746.000000)" fill="#FFFFFF">
            <path d="M955.054542,1754.9395 L943.33889,1746.52151 C942.857994,1746.17537 942.366329,1746 941.885741,1746 C940.975945,1746 940,1746.70058 940,1748.23557 L940,1765.7632 C940,1767.30035 940.977176,1768 941.885741,1768 C942.366329,1768 942.857994,1767.82463 943.342275,1767.47849 L955.052081,1759.06173 C955.774502,1758.54484 956.185248,1757.79503 956.185248,1756.99815 C956.186479,1756.2062 955.773271,1755.45609 955.054542,1754.9395 L955.054542,1754.9395 Z M953.838303,1757.37075 L942.128496,1765.7872 C942.110343,1765.79705 942.095883,1765.80781 942.083883,1765.81612 L942.083883,1765.76443 L942.083883,1748.2368 L942.083883,1748.18603 C942.098344,1748.19465 942.112805,1748.20418 942.128496,1748.21495 L953.841687,1756.63171 C954.006293,1756.75171 954.106288,1756.88893 954.106288,1756.99938 C954.106288,1757.11353 954.00537,1757.25045 953.838303,1757.37075 L953.838303,1757.37075 Z" id="Page-1"></path>
        </g>
    </g>
</svg>