<?xml version="1.0" encoding="UTF-8"?>
<svg width="137px" height="143px" viewBox="0 0 137 143" version="1.1" xmlns="http://www.w3.org/2000/svg" xmlns:xlink="http://www.w3.org/1999/xlink">
    <!-- Generator: Sketch 40.2 (33826) - http://www.bohemiancoding.com/sketch -->
    <title>Bitmap</title>
    <desc>Created with Sketch.</desc>
    <defs>
        <ellipse id="path-1" cx="68.2996675" cy="71.14591" rx="68.2996675" ry="71.14591"></ellipse>
    </defs>
    <g id="ostatne-page" stroke="none" stroke-width="1" fill="none" fill-rule="evenodd">
        <g id="BLACK_Inscenáciadetail" transform="translate(-119.000000, -3121.000000)">
            <g id="Group-16" transform="translate(107.000000, 2273.000000)">
                <g id="Group-25-Copy" transform="translate(12.000000, 848.000000)">
                    <g id="Group-Copy" transform="translate(0.000000, 0.082840)">
                        <g id="Bitmap">
                            <g id="Group-13">
                                <g id="Group-27">
                                    <mask id="mask-2" fill="white">
                                        <use xlink:href="#path-1"></use>
                                    </mask>
                                    <use id="Mask" fill="#4A4A4A" xlink:href="#path-1"></use>
                                    <path d="M72.8234885,71.9121885 C75.9547098,70.0759348 77.9766758,66.4517822 77.9766758,63.0993951 C77.9766758,58.3245235 73.8820018,53 68.3421488,53 C62.8022957,53 58.7076217,58.3245235 58.7076217,63.0993951 C58.7076217,66.4517822 60.7295878,70.0759348 63.8608091,71.9121885 C56.4447924,73.7967968 51,80.2689789 51,87.8888195 C51,88.3931772 51.434196,88.8069463 51.9634527,88.8069463 L84.7208448,88.8069463 C85.2501015,88.8069463 85.6842975,88.3931772 85.6842975,87.8888195 C85.6842975,80.2689789 80.2395051,73.7967968 72.8234885,71.9121885 L72.8234885,71.9121885 Z M60.6345271,63.0993951 C60.6345271,58.3698178 64.7292011,54.8362537 68.3421488,54.8362537 C71.9550964,54.8362537 76.0497704,58.3698178 76.0497704,63.0993951 C76.0497704,67.8289724 71.9550964,71.3625366 68.3421488,71.3625366 C64.7292011,71.3625366 60.6345271,67.8289724 60.6345271,63.0993951 L60.6345271,63.0993951 Z M52.9744358,86.9706927 C53.4561621,79.3055578 60.2003311,73.1987902 68.3421488,73.1987902 C76.4839665,73.1987902 83.2281354,79.3055578 83.7098618,86.9706927 L52.9744358,86.9706927 Z" id="Page-1-Copy-5" fill="#D8D8D8"></path>
                                </g>
                            </g>
                        </g>
                    </g>
                </g>
            </g>
        </g>
    </g>
</svg>