<?xml version="1.0" encoding="UTF-8"?>
<svg width="27px" height="31px" viewBox="0 0 27 31" version="1.1" xmlns="http://www.w3.org/2000/svg" xmlns:xlink="http://www.w3.org/1999/xlink">
    <!-- Generator: Sketch 40.2 (33826) - http://www.bohemiancoding.com/sketch -->
    <title>Fill 3</title>
    <desc>Created with Sketch.</desc>
    <defs></defs>
    <g id="staznosti-a-video" stroke="none" stroke-width="1" fill="none" fill-rule="evenodd">
        <g id="BLACK_staznosti-a-podnety" transform="translate(-106.000000, -783.000000)" fill="#9B9B9B">
            <g id="Group-7" transform="translate(106.000000, 783.000000)">
                <g id="Group">
                    <g id="Page-1">
                        <path d="M24.7314,17.0882941 L24.2694,17.0882941 L24.2694,8.7067451 L16.8654,0.322764706 L4.233,0.322764706 C2.0646,0.322764706 0.3,2.11103922 0.3,4.30717647 L0.3,26.6903922 C0.3,28.8865294 2.0646,30.6748039 4.233,30.6748039 L20.337,30.6748039 C22.5048,30.6748039 24.2694,28.8865294 24.2694,26.6903922 L24.2694,25.7263529 L24.7314,25.7263529 C25.8186,25.7263529 26.7,24.8334314 26.7,23.7320196 L26.7,19.0808039 C26.6976,17.9812157 25.8186,17.0882941 24.7314,17.0882941 L24.7314,17.0882941 Z M17.3838,3.75890196 L21.237,8.12260784 L17.3838,8.12260784 L17.3838,3.75890196 Z M22.3944,26.6928235 C22.3944,27.8422549 21.471,28.7777255 20.337,28.7777255 L4.233,28.7777255 C3.0984,28.7777255 2.175,27.8422549 2.175,26.6928235 L2.175,4.30717647 C2.175,3.1577451 3.0984,2.22227451 4.233,2.22227451 L15.5088,2.22227451 L15.5088,10.0196863 L22.3944,10.0196863 L22.3944,17.0882941 L12.5928,17.0882941 C11.5056,17.0882941 10.6242,17.9812157 10.6242,19.0832353 L10.6242,23.7368824 C10.6242,24.8382941 11.5056,25.7312157 12.5928,25.7312157 L22.3968,25.7312157 L22.3968,26.6928235 L22.3944,26.6928235 Z M21.129,21.5972745 C21.129,22.9083922 20.4444,23.7393137 18.975,23.7393137 L17.0976,23.7393137 L17.0976,19.4673922 L19.2282,19.4673922 C20.6346,19.4673922 21.129,20.522 21.129,21.5972745 L21.129,21.5972745 Z M16.6596,20.9280392 C16.6596,21.9631961 15.975,22.4476471 15.0072,22.4476471 L14.2404,22.4476471 L14.2404,23.7393137 L12.942,23.7393137 L12.942,19.4673922 L15.1146,19.4673922 C16.2588,19.4673922 16.6596,20.3177647 16.6596,20.9280392 L16.6596,20.9280392 Z M24.9492,20.5621176 L22.9896,20.5621176 L22.9896,21.0939804 L24.6726,21.0939804 L24.6726,22.1102941 L22.9896,22.1102941 L22.9896,23.7368824 L21.6912,23.7368824 L21.6912,19.4673922 L24.9516,19.4673922 L24.9516,20.5621176 L24.9492,20.5621176 Z" id="Fill-3"></path>
                    </g>
                </g>
            </g>
        </g>
    </g>
</svg>